<svg xmlns="http://www.w3.org/2000/svg" width="40" height="40.001" viewBox="0 0 40 40.001">
  <g id="customer-support" transform="translate(-0.274 0)">
    <path id="Caminho_3793" data-name="Caminho 3793" d="M.4,3.74,3.065,8.4a.666.666,0,0,0,.416.316l2.487.622,8.53,8.53.942-.942L6.777,8.267a.665.665,0,0,0-.309-.175l-2.39-.6L1.809,3.518,3.755,1.572,7.73,3.844l.6,2.39a.665.665,0,0,0,.175.31l8.663,8.663.942-.942-8.53-8.53L8.959,3.249a.667.667,0,0,0-.316-.417L3.978.166a.666.666,0,0,0-.8.107L.513,2.939a.666.666,0,0,0-.114.8Zm0,0" transform="translate(-0.038 -0.074)" fill="#fff"/>
    <path id="Caminho_3794" data-name="Caminho 3794" d="M189.584,174.662l-14.66,14.661-.942-.942,14.661-14.66Zm0,0" transform="translate(-161.517 -161.528)" fill="#fff"/>
    <path id="Caminho_3795" data-name="Caminho 3795" d="M54.988,399.159a.666.666,0,0,0-.571-.323h-4a.666.666,0,0,0-.571.323l-2,3.332a.666.666,0,0,0,0,.686l2,3.332a.666.666,0,0,0,.571.323h4a.667.667,0,0,0,.571-.323l2-3.332a.666.666,0,0,0,0-.686Zm-.948,6.34H50.8l-1.6-2.665,1.6-2.666H54.04l1.6,2.666Zm0,0" transform="translate(-44.148 -370.846)" fill="#fff"/>
    <path id="Caminho_3796" data-name="Caminho 3796" d="M32.26,15.994a7.969,7.969,0,0,0,7.751-9.929.666.666,0,0,0-1.117-.311L34.746,9.9,31.455,8.8l-1.1-3.29,4.148-4.149A.666.666,0,0,0,34.193.246,7.972,7.972,0,0,0,24.264,8a7.821,7.821,0,0,0,.162,1.561L9.832,24.153a7.862,7.862,0,0,0-1.561-.162,8,8,0,1,0,8,8,7.842,7.842,0,0,0-.162-1.561L19.6,26.932l1.528,1.528a.667.667,0,0,0,.942,0l.333-.333a.747.747,0,0,1,1.058,1.056h0l-.333.333a.666.666,0,0,0,0,.942l7.949,7.949a5.378,5.378,0,1,0,7.64-7.572l-.034-.035-7.949-7.949a.666.666,0,0,0-.942,0l-.333.333A.747.747,0,0,1,28.4,22.131h0l.333-.333a.666.666,0,0,0,0-.942L27.2,19.326,30.7,15.832a7.841,7.841,0,0,0,1.561.162Zm2.618,22.657a4.049,4.049,0,0,1-1.417-.259l5.2-5.2a4.041,4.041,0,0,1-3.787,5.463ZM27.329,21.332a2.08,2.08,0,0,0,2.932,2.928l7.478,7.485c.081.081.157.167.231.254l-5.7,5.7c-.087-.073-.173-.149-.255-.231l-7.484-7.485A2.08,2.08,0,0,0,21.6,27.054l-1.066-1.066,5.727-5.719Zm2.691-6.7L14.9,29.744a.667.667,0,0,0-.176.633,6.708,6.708,0,1,1-4.846-4.846.672.672,0,0,0,.633-.176L25.628,10.241a.666.666,0,0,0,.175-.633,6.631,6.631,0,0,1,6.836-8.263L29.123,4.861a.666.666,0,0,0-.161.681l1.333,4a.667.667,0,0,0,.422.421l4,1.333a.666.666,0,0,0,.681-.161L38.912,7.62c.008.127.012.253.012.378a6.63,6.63,0,0,1-8.274,6.457.667.667,0,0,0-.633.175h0Zm0,0" transform="translate(0 0)" fill="#fff"/>
    <path id="Caminho_3797" data-name="Caminho 3797" d="M390.5,389.289l-.942.942-6.664-6.664.942-.942Zm0,0" transform="translate(-355.765 -355.773)" fill="#fff"/>
  </g>
</svg>
